<svg width="408" height="236" viewBox="0 0 408 236" fill="none" xmlns="http://www.w3.org/2000/svg">
<path fill-rule="evenodd" clip-rule="evenodd" d="M173.557 0.674316C180.462 0.674316 187.055 2.05081 193.075 4.54421C199.332 7.13531 204.956 10.9267 209.656 15.6268C214.356 20.3272 218.148 25.9514 220.739 32.2078C223.232 38.2274 224.609 44.8208 224.609 51.7266C224.609 58.6133 223.239 65.1891 220.759 71.1958C219.856 69.6486 219.054 68.0323 218.367 66.3547C217.418 64.0425 216.676 61.5809 216.168 58.9898L215.348 54.8124C215.111 53.8168 214.982 52.7842 214.982 51.7266C214.982 46.1072 213.867 40.7551 211.848 35.8803C209.752 30.8205 206.673 26.2595 202.848 22.4347C199.024 18.6097 194.463 15.5312 189.403 13.4353C184.529 11.4162 179.176 10.3016 173.557 10.3016C167.937 10.3016 162.585 11.4165 157.711 13.4353C152.65 15.5315 148.088 18.6102 144.264 22.4347C140.439 26.2598 137.36 30.821 135.264 35.8812C133.245 40.7556 132.131 46.1072 132.131 51.7266C132.131 57.346 133.245 62.6986 135.264 67.5728C137.36 72.6326 140.439 77.1936 144.264 81.0184C148.089 84.8434 152.65 87.9224 157.71 90.0187C162.585 92.0381 167.937 93.1529 173.557 93.1529C179.176 93.1529 184.528 92.0381 189.402 90.0192C194.462 87.923 199.023 84.844 202.848 81.0195C204.286 79.5815 205.619 78.0392 206.833 76.4058C207.707 78.0828 208.664 79.7005 209.695 81.2539C210.532 82.5131 211.419 83.7328 212.354 84.9109C211.492 85.9181 210.592 86.8912 209.656 87.8275C204.956 92.5273 199.331 96.3189 193.075 98.9104C187.055 101.403 180.462 102.78 173.557 102.78C166.651 102.78 160.057 101.403 154.037 98.9101C147.78 96.3184 142.156 92.5267 137.456 87.8263C132.756 83.1265 128.964 77.502 126.373 71.2454C123.879 65.2254 122.503 58.6323 122.503 51.7266C122.503 44.8216 123.879 38.2285 126.373 32.2089C128.964 25.952 132.756 20.3275 137.456 15.6268C142.156 10.9269 147.781 7.13561 154.038 4.54421C160.058 2.05111 166.651 0.674316 173.557 0.674316Z" fill="#E30016"/>
<path fill-rule="evenodd" clip-rule="evenodd" d="M327.026 110.903C327.02 110.906 327.578 111.385 327.851 111.63C331.174 114.622 334.083 118.037 336.511 121.773C338.935 125.497 340.871 129.536 342.254 133.789C343.616 137.975 344.447 142.376 344.686 146.899C345.053 153.804 344.03 160.46 341.862 166.595C340.428 170.652 338.494 174.481 336.131 178.004C334.32 175.163 332.499 172.333 330.666 169.547C331.7 167.639 332.59 165.644 333.321 163.578C335.107 158.529 335.952 153.055 335.653 147.379C335.46 143.672 334.778 140.055 333.656 136.608C333.011 134.624 332.221 132.698 331.297 130.844C331.404 129.781 331.458 128.694 331.458 127.583C331.458 125.725 331.328 123.944 331.068 122.241C330.806 120.526 330.407 118.886 329.874 117.325C329.336 115.749 328.651 114.252 327.821 112.836C327.476 112.246 327.106 111.673 326.712 111.117L326.838 111.002L327.026 110.903ZM325.019 189.922C322.148 192.154 319.029 194.088 315.706 195.675C309.837 198.477 303.325 200.196 296.414 200.561C291.974 200.793 287.637 200.452 283.476 199.604V190.323C287.448 191.323 291.633 191.753 295.933 191.528C301.615 191.225 306.972 189.808 311.8 187.501C314.785 186.075 317.572 184.307 320.112 182.248L325.019 189.922ZM267.484 193.381C264.662 191.689 262.015 189.73 259.579 187.538C258.686 186.735 257.822 185.901 256.988 185.037C258.521 183.284 259.95 181.418 261.264 179.452C261.67 178.844 262.064 178.228 262.446 177.602C263.453 178.725 264.519 179.792 265.638 180.799C266.238 181.339 266.854 181.861 267.484 182.366V193.381ZM247.845 172.003C247.775 171.86 247.705 171.717 247.637 171.574C244.835 165.704 243.115 159.191 242.75 152.282L242.676 150.875L251.714 150.385L251.789 151.801C251.958 154.99 252.479 158.08 253.314 161.033C252.969 162.149 252.574 163.239 252.135 164.301C251.165 166.64 249.969 168.868 248.572 170.955C248.336 171.308 248.093 171.657 247.845 172.003Z" fill="#53AE24"/>
<path fill-rule="evenodd" clip-rule="evenodd" d="M216.457 98.4766C223.362 98.4766 229.956 99.8531 235.975 102.346C242.232 104.938 247.856 108.729 252.556 113.429C257.257 118.129 261.048 123.754 263.639 130.01C266.132 136.03 267.509 142.623 267.509 149.529C267.509 156.434 266.132 163.028 263.639 169.047C261.048 175.304 257.256 180.929 252.556 185.63C247.856 190.33 242.231 194.121 235.975 196.713C229.955 199.206 223.362 200.582 216.457 200.582C209.551 200.582 202.958 199.206 196.938 196.712C190.68 194.121 185.056 190.329 180.356 185.629C175.656 180.929 171.864 175.304 169.273 169.048C166.779 163.028 165.403 156.435 165.403 149.529C165.403 142.624 166.779 136.031 169.273 130.011C171.864 123.754 175.656 118.13 180.356 113.429C185.056 108.729 190.681 104.938 196.938 102.346C202.958 99.8534 209.551 98.4766 216.457 98.4766ZM245.748 120.237C241.924 116.412 237.363 113.333 232.303 111.238C227.429 109.218 222.076 108.104 216.457 108.104C210.838 108.104 205.485 109.219 200.611 111.238C195.55 113.334 190.988 116.412 187.164 120.237C183.339 124.062 180.26 128.623 178.164 133.683C176.145 138.558 175.031 143.909 175.031 149.529C175.031 155.148 176.145 160.501 178.164 165.375C180.26 170.435 183.339 174.996 187.164 178.821C190.989 182.646 195.55 185.725 200.61 187.821C205.485 189.84 210.837 190.955 216.457 190.955C222.076 190.955 227.428 189.84 232.302 187.821C237.362 185.725 241.923 182.646 245.748 178.822C249.573 174.997 252.652 170.435 254.748 165.375C256.767 160.5 257.882 155.148 257.882 149.529C257.882 143.909 256.767 138.557 254.748 133.683C252.652 128.623 249.573 124.062 245.748 120.237Z" fill="#00509E"/>
<path fill-rule="evenodd" clip-rule="evenodd" d="M284.755 51.9875C284.755 47.4816 285.355 43.0507 286.497 38.7948C287.095 36.5654 287.845 34.383 288.737 32.2612C289.105 32.9129 289.451 33.5703 289.776 34.233C290.514 35.741 291.163 37.3202 291.713 38.9612C292.243 40.5404 292.68 42.1967 293.016 43.9221C293.527 46.5243 293.77 49.0882 293.766 51.5853C293.765 52.1941 293.749 52.8008 293.72 53.4049H284.755V51.9875ZM297.241 18.5554C298.031 17.643 298.854 16.7583 299.709 15.9031C302.817 12.7943 306.362 10.0589 310.286 7.79256C316.271 4.33396 322.67 2.22525 329.127 1.37345C335.834 0.488452 342.597 0.959656 349.018 2.67996C355.443 4.40086 361.536 7.37245 366.9 11.4877C372.066 15.4514 376.554 20.4745 380.01 26.4601V26.4661C383.467 32.4608 385.574 38.8609 386.424 45.3137C387.308 52.0201 386.837 58.7802 385.118 65.1981C383.397 71.6223 380.425 77.7151 376.309 83.0782C372.345 88.2446 367.322 92.7336 361.336 96.1893L360.112 96.8966L355.574 89.0627L356.799 88.3558C361.725 85.5118 365.857 81.8202 369.115 77.5739C372.5 73.1618 374.946 68.147 376.362 62.8576C377.781 57.561 378.173 51.9935 377.449 46.4828C376.753 41.1754 375.024 35.9151 372.184 30.9942L372.182 30.9951C369.335 26.0696 365.642 21.9382 361.394 18.6806C356.982 15.2966 351.968 12.8516 346.678 11.4355C341.382 10.0167 335.816 9.62585 330.307 10.3499C325.004 11.0469 319.744 12.7783 314.821 15.6209H314.815C311.602 17.4722 308.689 19.7212 306.123 22.2869L306.125 22.2889C304.773 23.6413 303.518 25.0793 302.37 26.5908C301.476 24.8687 300.503 23.2181 299.458 21.6454C298.758 20.5921 298.018 19.5613 297.24 18.5548L297.241 18.5554Z" fill="#868789"/>
<path fill-rule="evenodd" clip-rule="evenodd" d="M3.151 99.1177L3.1512 3.12354H31.564C35.8965 3.12354 39.8248 3.59104 43.3477 4.52534C46.9034 5.46864 50.0408 6.89134 52.7578 8.79204C56.0741 11.1096 58.566 14.0276 60.2285 17.5536C61.8777 21.0507 62.7043 25.1235 62.7043 29.7797C62.7043 34.3471 61.8789 38.357 60.2308 41.8076C58.566 45.2943 56.0732 48.1913 52.7578 50.4958C49.9969 52.4387 46.8405 53.8946 43.2893 54.8609C39.7698 55.8185 35.8608 56.2975 31.564 56.2975H13.4742V100.535H3.151V99.1177ZM29.6688 12.1984H13.4742V46.9452H29.6688C33.1931 46.9452 36.2831 46.6467 38.9409 46.0534C41.5573 45.4692 43.7669 44.6012 45.5706 43.4534L45.5696 43.4514C47.6896 42.0939 49.2813 40.2942 50.3406 38.0537C51.4225 35.7653 51.9654 32.9915 51.9654 29.734C51.9654 26.5229 51.4225 23.7724 50.3406 21.484C49.2781 19.2367 47.6808 17.4101 45.5528 16.0055L45.5478 16.0005C43.6758 14.7417 41.4341 13.7966 38.8223 13.1633C36.1676 12.5199 33.1173 12.1993 29.6695 12.1993L29.6688 12.1984Z" fill="#E30016"/>
<path fill-rule="evenodd" clip-rule="evenodd" d="M66.0302 2.84009H89.0506C95.58 2.84009 101.173 3.59208 105.829 5.09618C110.581 6.63108 114.353 8.94869 117.144 12.047L117.141 12.05C119.077 14.1845 120.526 16.6594 121.489 19.4768C122.442 22.2652 122.918 25.3811 122.918 28.8263C122.918 31.8021 122.501 34.5662 121.667 37.1165C120.829 39.6821 119.57 42.0199 117.893 44.1286L117.89 44.1266C116.217 46.241 114.237 48.033 111.953 49.5033C110.412 50.4958 108.729 51.3439 106.907 52.0483C107.07 52.1861 107.235 52.3286 107.401 52.4766C108.375 53.3432 109.437 54.4243 110.586 55.7183L110.602 55.735C111.594 56.8916 112.478 57.9571 113.25 58.9285C114.019 59.8969 114.706 60.8107 115.308 61.6699C123.682 73.377 131.812 86.9317 139.774 99.2097C138.387 99.1003 136.952 99.0456 135.47 99.0456H127.703L110.305 71.8384L110.303 71.8404C108.155 68.4975 106.223 65.7371 104.507 63.5612C102.818 61.4205 101.331 59.8314 100.045 58.7962L100.023 58.7741C98.4983 57.4928 96.7654 56.527 94.8294 55.8807C92.8848 55.2313 90.7186 54.9051 88.3343 54.9051H74.9364V97.8755C72.028 98.0776 69.2617 98.6723 66.636 99.6599C66.1473 99.8435 65.6637 100.041 65.1852 100.252H64.6132V2.84058L66.0302 2.84009ZM74.9361 11.9149V45.8294H89.3046C93.399 45.8294 96.9414 45.4085 99.9331 44.5675C102.855 43.7457 105.252 42.5257 107.125 40.9085L107.136 40.8974C108.815 39.4801 110.073 37.7844 110.908 35.8067C111.755 33.8006 112.179 31.4751 112.179 28.8261C112.179 25.9504 111.677 23.4545 110.675 21.339C109.688 19.2521 108.201 17.5105 106.218 16.1156C104.202 14.7359 101.537 13.6959 98.2219 12.994C94.8194 12.274 90.739 11.9149 85.9765 11.9149H74.9361Z" fill="#E30016"/>
<path fill-rule="evenodd" clip-rule="evenodd" d="M77.2083 100.348C79.2504 100.348 81.2265 100.468 83.1376 100.703C85.0328 100.937 86.8799 101.291 88.6799 101.762L88.7462 101.778C90.464 102.315 92.2649 102.981 94.1414 103.777C95.9499 104.544 97.8446 105.444 99.8186 106.478L100.583 106.878V118.361L98.4123 116.991C96.5985 115.846 94.873 114.836 93.2397 113.97C91.6254 113.113 90.1066 112.401 88.6889 111.843L88.6829 111.838C86.8667 111.118 85.0749 110.582 83.307 110.226C81.5656 109.875 79.8257 109.701 78.0861 109.701C75.5157 109.701 73.1261 110.08 70.9184 110.84C68.7142 111.599 66.6872 112.736 64.8381 114.252L64.8331 114.257C62.9708 115.77 61.5758 117.532 60.6495 119.545C59.7206 121.561 59.2571 123.854 59.2571 126.427C59.2571 127.997 59.4975 129.481 59.9771 130.887C60.4587 132.298 61.1864 133.645 62.1586 134.935L62.181 134.968C63.1102 136.267 64.2362 137.412 65.5571 138.408C66.8888 139.413 68.4235 140.265 70.1589 140.97L70.1579 140.973L85.1138 146.789C88.2345 147.992 90.9926 149.453 93.383 151.179C95.7996 152.924 97.8468 154.942 99.52 157.238L99.5368 157.26C101.179 159.609 102.41 162.064 103.229 164.623C104.054 167.199 104.466 169.869 104.466 172.629C104.466 176.648 103.762 180.321 102.353 183.651C100.94 186.989 98.8258 189.956 96.0093 192.553L95.9983 192.558C93.1696 195.12 90.0554 197.044 86.6513 198.327C83.2438 199.612 79.5588 200.256 75.5905 200.256C73.4923 200.256 71.3984 200.068 69.309 199.688C67.2431 199.313 65.205 198.75 63.1946 197.998C61.1574 197.278 59.083 196.395 56.9689 195.351C54.8613 194.311 52.7226 193.116 50.5515 191.766L49.8817 191.35V179.368L52.1185 180.954C54.2916 182.494 56.3062 183.842 58.1572 184.989C59.9935 186.127 61.6942 187.085 63.2553 187.855C65.4014 188.875 67.4752 189.641 69.4734 190.15C71.4471 190.652 73.3489 190.904 75.1744 190.904C80.4542 190.904 84.9457 189.225 88.6472 185.869L88.6442 185.866C90.4825 184.188 91.8593 182.312 92.7732 180.235C93.6854 178.16 94.142 175.865 94.142 173.345C94.142 169.433 93.1252 166.106 91.0897 163.368C89.032 160.6 85.9034 158.385 81.703 156.727L64.253 149.817L64.248 149.812C62.0239 148.922 60.0031 147.698 58.1835 146.141C56.3915 144.608 54.7959 142.749 53.3958 140.566C51.9173 138.416 50.8044 136.208 50.0606 133.937C49.3108 131.647 48.9341 129.3 48.9341 126.889C48.9341 123.042 49.6476 119.514 51.0742 116.312C52.5004 113.112 54.6292 110.263 57.459 107.775H57.465C60.288 105.303 63.3443 103.448 66.6362 102.21C69.9374 100.969 73.4609 100.348 77.2088 100.348L77.2083 100.348Z" fill="#00509E"/>
<path fill-rule="evenodd" clip-rule="evenodd" d="M107.057 197.591V101.597H135.47C139.802 101.597 143.73 102.064 147.253 102.998C150.809 103.942 153.946 105.364 156.664 107.265C159.98 109.583 162.472 112.501 164.134 116.027C165.783 119.524 166.61 123.597 166.61 128.253C166.61 132.82 165.784 136.83 164.137 140.281C162.471 143.768 159.979 146.664 156.664 148.969C153.903 150.912 150.746 152.368 147.195 153.334C143.676 154.292 139.767 154.771 135.47 154.771H117.38V199.008H107.057V197.591ZM133.575 110.671H117.38V145.418H133.575C137.099 145.418 140.189 145.12 142.847 144.526C145.463 143.942 147.672 143.074 149.476 141.927L149.475 141.924C151.595 140.566 153.187 138.766 154.246 136.526C155.328 134.237 155.871 131.463 155.871 128.206C155.871 124.995 155.328 122.245 154.246 119.956C153.184 117.709 151.587 115.882 149.459 114.478L149.454 114.473C147.581 113.214 145.34 112.269 142.728 111.635C140.073 110.992 137.023 110.671 133.575 110.671L133.575 110.671Z" fill="#00509E"/>
<path fill-rule="evenodd" clip-rule="evenodd" d="M271.736 101.597H294.756C301.286 101.597 306.879 102.349 311.534 103.853C316.287 105.388 320.059 107.705 322.85 110.804L322.847 110.807C324.782 112.941 326.232 115.416 327.194 118.233C328.147 121.022 328.624 124.138 328.624 127.583C328.624 130.559 328.207 133.322 327.373 135.873C326.535 138.438 325.276 140.776 323.599 142.885L323.596 142.883C321.924 144.998 319.943 146.79 317.659 148.26C316.118 149.252 314.435 150.1 312.612 150.805C312.776 150.943 312.941 151.085 313.107 151.233C314.081 152.1 315.143 153.181 316.291 154.475L316.308 154.492C317.299 155.648 318.184 156.713 318.956 157.685C319.725 158.654 320.412 159.567 321.013 160.426C329.625 172.465 337.98 186.46 346.157 199.008H334.18L316.011 170.595L316.009 170.597C313.861 167.254 311.929 164.494 310.213 162.318C308.524 160.177 307.037 158.588 305.751 157.553L305.729 157.531C304.204 156.249 302.471 155.284 300.535 154.637C298.591 153.988 296.424 153.662 294.04 153.662H280.642V199.009H270.319V101.597L271.736 101.597ZM280.642 110.671V144.586H295.01C299.105 144.586 302.647 144.165 305.639 143.324C308.561 142.502 310.957 141.282 312.83 139.665L312.841 139.654C314.521 138.236 315.779 136.541 316.614 134.563C317.461 132.557 317.884 130.232 317.884 127.583C317.884 124.707 317.382 122.211 316.381 120.096C315.393 118.009 313.906 116.267 311.924 114.872C309.908 113.492 307.243 112.452 303.928 111.751C300.525 111.031 296.445 110.671 291.682 110.671H280.642Z" fill="#00509E"/>
<path fill-rule="evenodd" clip-rule="evenodd" d="M326.319 109.254V101.597H407.39V110.671H372.005V199.008H361.682V110.671H326.319V109.254Z" fill="#00509E"/>
<path fill-rule="evenodd" clip-rule="evenodd" d="M41.7622 230.03C41.7622 231.386 41.3654 232.478 40.5717 233.307C39.778 234.137 38.7124 234.552 37.3748 234.552C36.0017 234.552 34.9137 234.079 34.111 233.134C33.362 232.26 32.9876 231.118 32.9876 229.709V217.403C32.9876 215.227 33.6829 213.703 35.0742 212.829C35.7519 212.419 36.5456 212.214 37.455 212.214C39.2386 212.214 40.496 212.918 41.2271 214.327C41.5839 215.005 41.7622 215.763 41.7622 216.601V218.928H38.552V217.243C38.552 216.458 38.5251 215.968 38.4718 215.771C38.3468 215.219 38.0259 214.942 37.5086 214.942C36.6346 214.942 36.1978 215.575 36.1978 216.841V230.244C36.1978 230.654 36.2868 231.002 36.4651 231.288C36.6791 231.644 36.9825 231.823 37.3748 231.823C37.7138 231.823 37.9947 231.693 38.2175 231.435C38.4406 231.176 38.552 230.868 38.552 230.512V227.248H41.7622V230.03ZM51.1254 230.94C51.1254 232.224 50.5814 233.223 49.4934 233.936C48.9404 234.311 48.2451 234.498 47.4066 234.498C46.1939 234.498 45.2398 234.137 44.5442 233.415C43.8488 232.692 43.501 231.716 43.501 230.485V220.828C43.501 219.651 43.8443 218.687 44.5308 217.939C45.2174 217.189 46.1494 216.815 47.3264 216.815C48.45 216.815 49.3597 217.154 50.0553 217.831C50.7685 218.527 51.1254 219.481 51.1254 220.694V226.446H46.3365V230.913C46.3365 231.591 46.6577 231.93 47.2997 231.93C47.9596 231.93 48.2896 231.475 48.2896 230.565V228.907H51.1254V230.94ZM48.2896 224.091V220.507C48.2896 219.757 47.9506 219.383 47.2731 219.383C46.9876 219.383 46.7603 219.499 46.5908 219.731C46.4213 219.963 46.3365 220.221 46.3365 220.507V224.091H48.2896ZM60.6223 234.364H57.7865V220.694C57.7865 220.373 57.6975 220.087 57.5189 219.838C57.3227 219.535 57.0733 219.383 56.77 219.383C56.5381 219.383 56.3241 219.454 56.1279 219.597C55.9139 219.757 55.8068 219.945 55.8068 220.159V234.364H52.9713V216.975H55.8068V217.831H55.8603C56.3241 217.154 56.9483 216.815 57.7329 216.815C58.7497 216.815 59.5077 217.279 60.0069 218.206C60.417 218.937 60.6223 219.856 60.6223 220.961V234.364ZM66.3471 219.463H65.5982V234.364H62.7624V219.463H62.0135V216.975H62.7624V213.631H65.5982V216.975H66.3471V219.463ZM75.3627 230.94C75.3627 232.224 74.8187 233.223 73.7308 233.936C73.1778 234.311 72.4824 234.498 71.6439 234.498C70.4313 234.498 69.4771 234.137 68.7815 233.415C68.0862 232.692 67.7384 231.716 67.7384 230.485V220.828C67.7384 219.651 68.0816 218.687 68.7682 217.939C69.4547 217.189 70.3868 216.815 71.5637 216.815C72.6874 216.815 73.597 217.154 74.2926 217.831C75.0058 218.527 75.3627 219.481 75.3627 220.694V226.446H70.5739V230.913C70.5739 231.591 70.895 231.93 71.5371 231.93C72.197 231.93 72.5269 231.475 72.5269 230.565V228.907H75.3627V230.94ZM72.5269 224.091V220.507C72.5269 219.757 72.1879 219.383 71.5104 219.383C71.225 219.383 70.9976 219.499 70.8281 219.731C70.6586 219.963 70.5739 220.221 70.5739 220.507V224.091H72.5269ZM81.8368 220.052C81.6406 219.927 81.4175 219.865 81.1678 219.865C80.3653 219.865 79.9639 220.729 79.9639 222.459V234.364H77.1284V216.975H79.9639V219.035H80.0175C80.3208 217.947 80.5257 217.314 80.6329 217.136C80.7933 216.922 80.9807 216.815 81.1947 216.815C81.4977 216.815 81.7117 216.949 81.8368 217.216V220.052ZM91.3413 214.835C90.5567 214.942 90.1644 215.406 90.1644 216.226V216.975H91.2345V219.463H90.5655V234.364H87.73V219.463H87.1146V216.975H87.73V216.467C87.73 214.291 88.3363 212.989 89.549 212.561C90.0306 212.383 90.6281 212.276 91.3413 212.24V214.835ZM100.223 229.87C100.223 231.636 99.7058 232.946 98.6714 233.802C98.1184 234.266 97.3873 234.498 96.4777 234.498C95.1757 234.498 94.1859 234.016 93.5081 233.053C92.9197 232.215 92.6254 231.109 92.6254 229.736V220.961C92.6254 219.499 93.1515 218.349 94.2037 217.51C94.7568 217.047 95.4878 216.815 96.3975 216.815C97.753 216.815 98.7604 217.314 99.4203 218.313C99.9555 219.133 100.223 220.15 100.223 221.363V229.87ZM97.3873 230.539V220.774C97.3873 219.847 97.0662 219.383 96.4241 219.383C95.7821 219.383 95.4612 219.847 95.4612 220.774V230.458C95.4612 231.439 95.7911 231.93 96.4511 231.93C97.0752 231.93 97.3873 231.466 97.3873 230.539ZM106.697 220.052C106.501 219.927 106.278 219.865 106.028 219.865C105.226 219.865 104.824 220.729 104.824 222.459V234.364H101.989V216.975H104.824V219.035H104.878C105.181 217.947 105.386 217.314 105.493 217.136C105.654 216.922 105.841 216.815 106.055 216.815C106.358 216.815 106.572 216.949 106.697 217.216V220.052ZM121.445 234.364H118.315L118.021 231.475H115.373L115.051 234.364H111.868L115.319 212.187H118.101L121.445 234.364ZM117.7 228.8L116.71 219.517H116.657L115.64 228.8H117.7ZM126.662 219.463H125.913V234.364H123.077V219.463H122.328V216.975H123.077V213.631H125.913V216.975H126.662V219.463ZM135.624 234.364H132.788V220.801C132.788 219.838 132.44 219.356 131.744 219.356C131.566 219.356 131.375 219.428 131.169 219.57C130.964 219.713 130.862 219.873 130.862 220.052V234.364H128.026V212.401H130.862V217.698C131.397 217.109 132.012 216.815 132.708 216.815C133.956 216.815 134.821 217.484 135.302 218.821C135.516 219.445 135.624 220.105 135.624 220.801V234.364ZM140.68 234.364H137.844V212.401H140.68V234.364ZM150.444 230.94C150.444 232.224 149.9 233.223 148.812 233.936C148.259 234.311 147.564 234.498 146.726 234.498C145.513 234.498 144.559 234.137 143.863 233.415C143.168 232.692 142.82 231.716 142.82 230.485V220.828C142.82 219.651 143.163 218.687 143.85 217.939C144.536 217.189 145.468 216.815 146.645 216.815C147.769 216.815 148.679 217.154 149.374 217.831C150.087 218.527 150.444 219.481 150.444 220.694V226.446H145.655V230.913C145.655 231.591 145.977 231.93 146.619 231.93C147.279 231.93 147.609 231.475 147.609 230.565V228.907H150.444V230.94ZM147.609 224.091V220.507C147.609 219.757 147.269 219.383 146.592 219.383C146.307 219.383 146.079 219.499 145.91 219.731C145.74 219.963 145.655 220.221 145.655 220.507V224.091H147.609ZM156.196 219.463H155.447V234.364H152.611V219.463H151.862V216.975H152.611V213.631H155.447V216.975H156.196V219.463ZM160.904 214.354C160.904 214.764 160.752 215.129 160.449 215.451C160.146 215.771 159.78 215.932 159.352 215.932C158.907 215.932 158.528 215.78 158.216 215.477C157.904 215.174 157.747 214.799 157.747 214.354C157.747 213.908 157.899 213.533 158.202 213.23C158.505 212.927 158.88 212.775 159.326 212.775C159.772 212.775 160.146 212.931 160.449 213.243C160.752 213.556 160.904 213.926 160.904 214.354ZM160.744 234.364H157.908V216.975H160.744V234.364ZM170.508 229.79C170.508 231.537 170.035 232.857 169.09 233.749C168.537 234.248 167.797 234.498 166.87 234.498C165.621 234.498 164.658 234.07 163.98 233.214C163.356 232.447 163.044 231.412 163.044 230.11V221.416C163.044 220.079 163.321 219.009 163.874 218.206C164.516 217.279 165.479 216.815 166.763 216.815C168.029 216.815 168.983 217.225 169.625 218.045C170.214 218.795 170.508 219.82 170.508 221.122V223.53H167.672V220.801C167.672 219.856 167.396 219.383 166.843 219.383C166.558 219.383 166.326 219.494 166.147 219.718C165.969 219.94 165.88 220.203 165.88 220.507V230.565C165.88 230.868 165.942 231.163 166.067 231.448C166.246 231.769 166.469 231.93 166.736 231.93C167.36 231.93 167.672 231.43 167.672 230.432V227.783H170.508V229.79ZM185.096 223.369C185.096 224.707 184.748 225.75 184.052 226.499C183.339 227.284 182.322 227.676 181.003 227.676H179.772V234.364H176.562V212.401H180.468C182.519 212.401 183.901 213.185 184.614 214.755C184.935 215.504 185.096 216.351 185.096 217.296V223.369ZM181.886 223.182V216.788C181.886 215.682 181.386 215.129 180.388 215.129H179.772V224.947H180.494C181.422 224.947 181.886 224.359 181.886 223.182ZM194.085 230.94C194.085 232.224 193.541 233.223 192.453 233.936C191.9 234.311 191.204 234.498 190.366 234.498C189.153 234.498 188.199 234.137 187.503 233.415C186.808 232.692 186.46 231.716 186.46 230.485V220.828C186.46 219.651 186.803 218.687 187.49 217.939C188.176 217.189 189.108 216.815 190.285 216.815C191.409 216.815 192.319 217.154 193.014 217.831C193.728 218.527 194.085 219.481 194.085 220.694V226.446H189.296V230.913C189.296 231.591 189.617 231.93 190.259 231.93C190.919 231.93 191.249 231.475 191.249 230.565V228.907H194.085V230.94ZM191.249 224.091V220.507C191.249 219.757 190.91 219.383 190.232 219.383C189.947 219.383 189.719 219.499 189.55 219.731C189.38 219.963 189.296 220.221 189.296 220.507V224.091H191.249ZM200.559 220.052C200.362 219.927 200.139 219.865 199.889 219.865C199.087 219.865 198.686 220.729 198.686 222.459V234.364H195.85V216.975H198.686V219.035H198.739C199.043 217.947 199.248 217.314 199.355 217.136C199.515 216.922 199.702 216.815 199.917 216.815C200.219 216.815 200.434 216.949 200.559 217.216V220.052ZM205.802 214.835C205.017 214.942 204.625 215.406 204.625 216.226V216.975H205.695V219.463H205.026V234.364H202.19V219.463H201.575V216.975H202.19V216.467C202.19 214.291 202.797 212.989 204.009 212.561C204.491 212.383 205.089 212.276 205.802 212.24V214.835ZM214.684 229.87C214.684 231.636 214.166 232.946 213.132 233.802C212.579 234.266 211.848 234.498 210.938 234.498C209.636 234.498 208.646 234.016 207.969 233.053C207.38 232.215 207.086 231.109 207.086 229.736V220.961C207.086 219.499 207.612 218.349 208.664 217.51C209.217 217.047 209.948 216.815 210.858 216.815C212.213 216.815 213.221 217.314 213.881 218.313C214.416 219.133 214.684 220.15 214.684 221.363V229.87ZM211.848 230.539V220.774C211.848 219.847 211.527 219.383 210.885 219.383C210.243 219.383 209.922 219.847 209.922 220.774V230.458C209.922 231.439 210.252 231.93 210.911 231.93C211.536 231.93 211.848 231.466 211.848 230.539ZM221.158 220.052C220.961 219.927 220.738 219.865 220.489 219.865C219.686 219.865 219.285 220.729 219.285 222.459V234.364H216.449V216.975H219.285V219.035H219.338C219.642 217.947 219.847 217.314 219.954 217.136C220.114 216.922 220.301 216.815 220.516 216.815C220.819 216.815 221.033 216.949 221.158 217.216V220.052ZM235.764 234.364H232.928V221.336C232.928 220.034 232.527 219.383 231.725 219.383C231.564 219.383 231.368 219.437 231.136 219.543C230.868 219.668 230.735 219.802 230.735 219.945C230.717 219.998 230.708 220.212 230.708 220.587V234.364H227.872V221.069C227.872 219.909 227.515 219.329 226.802 219.329C226.445 219.329 226.062 219.526 225.652 219.918V234.364H222.816V216.975H225.652V217.805C226.419 217.145 227.141 216.815 227.819 216.815C228.853 216.815 229.656 217.35 230.227 218.42C230.851 217.35 231.725 216.815 232.848 216.815C234.257 216.815 235.149 217.626 235.523 219.249C235.684 219.909 235.764 220.569 235.764 221.229V234.364ZM245.02 234.364H242.184V233.24H242.131C241.614 234.079 240.927 234.498 240.071 234.498C239.108 234.498 238.386 234.052 237.904 233.16C237.53 232.447 237.342 231.564 237.342 230.512V221.416C237.342 219.775 237.708 218.5 238.439 217.591C238.867 217.073 239.438 216.815 240.151 216.815C241.043 216.815 241.703 217.216 242.131 218.019H242.184V216.975H245.02V234.364ZM242.184 230.886V220.079C241.846 219.615 241.507 219.383 241.168 219.383C240.508 219.383 240.178 219.936 240.178 221.042V230.753C240.178 231.609 240.481 232.037 241.088 232.037C241.337 232.037 241.583 231.907 241.823 231.649C242.064 231.39 242.184 231.136 242.184 230.886ZM254.571 234.364H251.735V220.694C251.735 220.373 251.646 220.087 251.467 219.838C251.271 219.535 251.022 219.383 250.718 219.383C250.487 219.383 250.272 219.454 250.076 219.597C249.862 219.757 249.755 219.945 249.755 220.159V234.364H246.92V216.975H249.755V217.831H249.809C250.273 217.154 250.897 216.815 251.681 216.815C252.698 216.815 253.456 217.279 253.955 218.206C254.365 218.937 254.571 219.856 254.571 220.961V234.364ZM264.014 229.79C264.014 231.537 263.542 232.857 262.596 233.749C262.043 234.248 261.303 234.498 260.376 234.498C259.127 234.498 258.164 234.07 257.487 233.214C256.862 232.447 256.55 231.412 256.55 230.11V221.416C256.55 220.079 256.827 219.009 257.38 218.206C258.022 217.279 258.985 216.815 260.269 216.815C261.535 216.815 262.489 217.225 263.131 218.045C263.72 218.795 264.014 219.82 264.014 221.122V223.53H261.179V220.801C261.179 219.856 260.902 219.383 260.349 219.383C260.064 219.383 259.832 219.494 259.654 219.718C259.475 219.94 259.386 220.203 259.386 220.507V230.565C259.386 230.868 259.449 231.163 259.573 231.448C259.752 231.769 259.975 231.93 260.242 231.93C260.867 231.93 261.179 231.43 261.179 230.432V227.783H264.014V229.79ZM273.485 230.94C273.485 232.224 272.941 233.223 271.853 233.936C271.3 234.311 270.604 234.498 269.766 234.498C268.553 234.498 267.599 234.137 266.903 233.415C266.208 232.692 265.86 231.716 265.86 230.485V220.828C265.86 219.651 266.204 218.687 266.89 217.939C267.577 217.189 268.509 216.815 269.686 216.815C270.809 216.815 271.719 217.154 272.414 217.831C273.128 218.527 273.485 219.481 273.485 220.694V226.446H268.696V230.913C268.696 231.591 269.017 231.93 269.659 231.93C270.319 231.93 270.649 231.475 270.649 230.565V228.907H273.485V230.94ZM270.649 224.091V220.507C270.649 219.757 270.31 219.383 269.632 219.383C269.347 219.383 269.12 219.499 268.95 219.731C268.781 219.963 268.696 220.221 268.696 220.507V224.091H270.649ZM289.517 222.968C289.321 225.625 288.759 227.97 287.831 230.004L289.276 234.364H286.253L285.798 233.134C285.085 234.061 284.139 234.525 282.962 234.525C281.964 234.525 281.161 234.195 280.555 233.535C279.645 232.59 279.19 230.886 279.19 228.425C279.19 226.731 279.422 225.375 279.886 224.359C280.207 223.628 280.858 222.691 281.839 221.55C281.821 221.389 281.732 221.077 281.571 220.614L281.224 219.517C280.885 218.447 280.715 217.493 280.715 216.654C280.715 214.996 281.224 213.738 282.24 212.882C282.793 212.419 283.497 212.187 284.353 212.187C285.994 212.187 287.073 212.945 287.591 214.461C287.805 215.121 287.911 215.816 287.911 216.547C287.911 218.206 287.537 219.553 286.788 220.587C286.431 221.104 285.941 221.684 285.317 222.326L286.654 226.446H286.708C287.029 225.34 287.207 224.181 287.243 222.968H289.517ZM285.317 216.28C285.317 215.21 284.995 214.675 284.353 214.675C283.765 214.675 283.471 215.085 283.471 215.905C283.471 216.726 283.756 217.813 284.327 219.169C284.987 218.42 285.317 217.457 285.317 216.28ZM284.889 230.512L283.016 224.814C282.41 225.688 282.107 226.874 282.107 228.372C282.107 230.708 282.57 231.876 283.497 231.876C284.175 231.876 284.639 231.421 284.889 230.512ZM303.757 234.364H300.546V225.75C300.546 225.072 300.279 224.591 299.744 224.305C299.494 224.163 299.217 224.091 298.914 224.091H298.353V234.364H295.142V212.401H299.556C300.965 212.401 302.027 212.838 302.74 213.712C303.418 214.514 303.757 215.638 303.757 217.082V219.062C303.757 220.079 303.605 220.863 303.302 221.416C302.945 222.058 302.312 222.495 301.402 222.727V222.781C302.294 223.066 302.918 223.503 303.275 224.091C303.596 224.627 303.757 225.384 303.757 226.365V234.364ZM300.546 220.186V216.307C300.546 215.522 300.065 215.129 299.102 215.129H298.353V221.363C299.048 221.345 299.521 221.3 299.771 221.229C300.288 221.069 300.546 220.721 300.546 220.186ZM312.745 230.94C312.745 232.224 312.201 233.223 311.113 233.936C310.56 234.311 309.865 234.498 309.026 234.498C307.814 234.498 306.86 234.137 306.164 233.415C305.469 232.692 305.121 231.716 305.121 230.485V220.828C305.121 219.651 305.464 218.687 306.151 217.939C306.837 217.189 307.769 216.815 308.946 216.815C310.07 216.815 310.98 217.154 311.675 217.831C312.388 218.527 312.745 219.481 312.745 220.694V226.446H307.956V230.913C307.956 231.591 308.278 231.93 308.92 231.93C309.58 231.93 309.909 231.475 309.909 230.565V228.907H312.745V230.94ZM309.909 224.091V220.507C309.909 219.757 309.57 219.383 308.893 219.383C308.608 219.383 308.38 219.499 308.211 219.731C308.041 219.963 307.956 220.221 307.956 220.507V224.091H309.909ZM322.162 234.364H319.326V220.801C319.326 219.838 318.978 219.356 318.283 219.356C318.104 219.356 317.913 219.428 317.708 219.57C317.503 219.713 317.4 219.873 317.4 220.052V234.364H314.564V212.401H317.4V217.698C317.935 217.109 318.55 216.815 319.246 216.815C320.494 216.815 321.359 217.484 321.841 218.821C322.055 219.445 322.162 220.105 322.162 220.801V234.364ZM331.632 234.364H328.797V233.24H328.743C328.226 234.079 327.539 234.498 326.683 234.498C325.72 234.498 324.998 234.052 324.516 233.16C324.142 232.447 323.954 231.564 323.954 230.512V221.416C323.954 219.775 324.32 218.5 325.051 217.591C325.479 217.073 326.05 216.815 326.763 216.815C327.655 216.815 328.315 217.216 328.743 218.019H328.797V216.975H331.632V234.364ZM328.797 230.886V220.079C328.458 219.615 328.119 219.383 327.78 219.383C327.12 219.383 326.79 219.936 326.79 221.042V230.753C326.79 231.609 327.093 232.037 327.7 232.037C327.949 232.037 328.195 231.907 328.435 231.649C328.676 231.39 328.797 231.136 328.797 230.886ZM341.156 229.656C341.156 231.296 340.817 232.608 340.139 233.588C339.711 234.195 339.105 234.498 338.32 234.498C337.678 234.498 337.036 234.088 336.394 233.267H336.341V234.364H333.505V212.401H336.341V218.259H336.394C336.84 217.296 337.544 216.815 338.507 216.815C340.273 216.815 341.156 218.384 341.156 221.523V229.656ZM338.32 230.565V220.747C338.32 219.838 338.044 219.383 337.491 219.383C337.223 219.383 336.965 219.508 336.715 219.757C336.466 220.007 336.341 220.275 336.341 220.56V231.1C336.341 231.35 336.456 231.56 336.688 231.729C336.92 231.899 337.152 231.983 337.384 231.983C338.008 231.983 338.32 231.511 338.32 230.565ZM346.319 214.354C346.319 214.764 346.168 215.129 345.864 215.451C345.561 215.771 345.195 215.932 344.767 215.932C344.322 215.932 343.943 215.78 343.631 215.477C343.319 215.174 343.163 214.799 343.163 214.354C343.163 213.908 343.314 213.533 343.617 213.23C343.92 212.927 344.295 212.775 344.741 212.775C345.187 212.775 345.561 212.931 345.864 213.243C346.168 213.556 346.319 213.926 346.319 214.354ZM346.159 234.364H343.323V216.975H346.159V234.364ZM351.456 234.364H348.62V212.401H351.456V234.364ZM356.913 214.354C356.913 214.764 356.761 215.129 356.458 215.451C356.155 215.771 355.789 215.932 355.361 215.932C354.916 215.932 354.536 215.78 354.224 215.477C353.912 215.174 353.756 214.799 353.756 214.354C353.756 213.908 353.908 213.533 354.211 213.23C354.514 212.927 354.889 212.775 355.334 212.775C355.78 212.775 356.155 212.931 356.458 213.243C356.761 213.556 356.913 213.926 356.913 214.354ZM356.752 234.364H353.917V216.975H356.752V234.364ZM362.798 219.463H362.049V234.364H359.213V219.463H358.464V216.975H359.213V213.631H362.049V216.975H362.798V219.463ZM371.76 234.364H368.924V233.24H368.871C368.354 234.079 367.667 234.498 366.811 234.498C365.848 234.498 365.126 234.052 364.644 233.16C364.27 232.447 364.082 231.564 364.082 230.512V221.416C364.082 219.775 364.448 218.5 365.179 217.591C365.607 217.073 366.178 216.815 366.891 216.815C367.783 216.815 368.443 217.216 368.871 218.019H368.924V216.975H371.76V234.364ZM368.924 230.886V220.079C368.585 219.615 368.247 219.383 367.908 219.383C367.248 219.383 366.918 219.936 366.918 221.042V230.753C366.918 231.609 367.221 232.037 367.828 232.037C368.077 232.037 368.323 231.907 368.563 231.649C368.804 231.39 368.924 231.136 368.924 230.886ZM377.565 219.463H376.816V234.364H373.98V219.463H373.232V216.975H373.98V213.631H376.816V216.975H377.565V219.463ZM382.273 214.354C382.273 214.764 382.122 215.129 381.819 215.451C381.515 215.771 381.15 215.932 380.722 215.932C380.276 215.932 379.897 215.78 379.585 215.477C379.273 215.174 379.117 214.799 379.117 214.354C379.117 213.908 379.268 213.533 379.572 213.23C379.875 212.927 380.249 212.775 380.695 212.775C381.141 212.775 381.515 212.931 381.819 213.243C382.122 213.556 382.273 213.926 382.273 214.354ZM382.113 234.364H379.277V216.975H382.113V234.364ZM391.878 229.87C391.878 231.636 391.36 232.946 390.326 233.802C389.773 234.266 389.042 234.498 388.132 234.498C386.83 234.498 385.84 234.016 385.163 233.053C384.574 232.215 384.28 231.109 384.28 229.736V220.961C384.28 219.499 384.806 218.349 385.858 217.51C386.411 217.047 387.142 216.815 388.052 216.815C389.407 216.815 390.415 217.314 391.075 218.313C391.61 219.133 391.878 220.15 391.878 221.363V229.87ZM389.042 230.539V220.774C389.042 219.847 388.721 219.383 388.079 219.383C387.437 219.383 387.116 219.847 387.116 220.774V230.458C387.116 231.439 387.446 231.93 388.105 231.93C388.73 231.93 389.042 231.466 389.042 230.539ZM401.375 234.364H398.539V220.694C398.539 220.373 398.45 220.087 398.271 219.838C398.075 219.535 397.826 219.383 397.522 219.383C397.29 219.383 397.076 219.454 396.88 219.597C396.666 219.757 396.559 219.945 396.559 220.159V234.364H393.724V216.975H396.559V217.831H396.612C397.076 217.154 397.701 216.815 398.485 216.815C399.502 216.815 400.26 217.279 400.759 218.206C401.169 218.937 401.375 219.856 401.375 220.961V234.364Z" fill="#6E6F70"/>
<path fill-rule="evenodd" clip-rule="evenodd" d="M11.4641 215.514H15.8108V220.946H21.2425V225.293H15.8108V230.724H11.4641V225.293H6.03209V220.946H11.4641V215.514ZM13.6372 210.468C17.1309 210.468 20.2938 211.884 22.5827 214.173C24.872 216.463 26.2882 219.626 26.2882 223.119C26.2882 226.612 24.872 229.775 22.5827 232.065C20.2935 234.354 17.1306 235.77 13.6372 235.77C10.144 235.77 6.98109 234.354 4.69189 232.064C2.40289 229.775 0.986389 226.612 0.986389 223.119C0.986389 219.626 2.40289 216.463 4.69189 214.174C6.98139 211.884 10.144 210.468 13.6372 210.468ZM20.5786 216.178C18.8027 214.402 16.3482 213.303 13.6372 213.303C10.9267 213.303 8.47219 214.402 6.69599 216.178C4.92009 217.954 3.82109 220.408 3.82109 223.119C3.82109 225.83 4.92009 228.284 6.69599 230.06C8.47219 231.836 10.9267 232.935 13.6372 232.935C16.3485 232.935 18.8027 231.837 20.5786 230.06C22.3548 228.284 23.4535 225.83 23.4535 223.119C23.4535 220.408 22.3548 217.954 20.5786 216.178Z" fill="#E30016"/>
<path fill-rule="evenodd" clip-rule="evenodd" d="M271.13 3.15739C275.395 4.61799 279.394 6.62099 283.049 9.07979C286.765 11.5802 290.125 14.5515 293.05 17.9037C295.969 21.2466 298.453 24.9748 300.423 28.9977C302.365 32.9622 303.807 37.2023 304.676 41.6326C306.008 48.4088 305.928 55.1436 304.642 61.5301C303.306 68.1614 300.668 74.4073 296.959 79.9255C293.247 85.4508 288.46 90.2547 282.829 93.995C277.407 97.5973 271.201 100.216 264.419 101.546C257.635 102.872 250.898 102.79 244.511 101.503C237.88 100.166 231.637 97.5295 226.121 93.8224C220.597 90.1104 215.794 85.323 212.054 79.6925C208.451 74.2687 205.832 68.0625 204.503 61.2812L204.231 59.8951L213.115 58.1398L213.389 59.5322C214.483 65.1145 216.637 70.2205 219.599 74.6791C222.677 79.3124 226.627 83.25 231.167 86.3006C235.717 89.3581 240.857 91.5323 246.305 92.6332C251.547 93.6925 257.086 93.7594 262.67 92.6655C268.253 91.568 273.359 89.4122 277.818 86.4492C282.45 83.3705 286.387 79.4201 289.437 74.8796C292.494 70.3317 294.668 65.1927 295.768 59.7454C296.826 54.5041 296.891 48.9655 295.796 43.3796C295.082 39.722 293.899 36.2363 292.312 32.9929C290.692 29.6843 288.645 26.6129 286.238 23.8528C283.842 21.1032 281.083 18.6651 278.026 16.6126C275.022 14.5954 271.727 12.9482 268.2 11.7404L266.857 11.2806L269.796 2.70068L271.13 3.15739Z" fill="#FFCB00"/>
</svg>
